{
    "/js/main-app.js": "/js/main-app.js",
    "/css/app.css": "/css/app.css",
    "/js/product.js": "/js/product.js",
    "/js/order.js": "/js/order.js",
    "/js/project.js": "/js/project.js",
    "/js/form.js": "/js/form.js",
    "/js/errors.js": "/js/errors.js",
    "/js/blog.js": "/js/blog.js"
}